{
    "type": "object",
    "properties": {
        "project_id": {
            "type": "integer"
        },
        "name": {
            "type": "string"
        },
        "merged": {
            "type": ["null", "boolean"]
        },
        "protected": {
            "type": ["null", "boolean"]
        },
        "default": {
            "type": ["null", "boolean"]
        },
        "developers_can_push": {
            "type": ["null", "boolean"]
        },
        "developers_can_merge": {
            "type": ["null", "boolean"]
        },
        "can_push": {
            "type": ["null", "boolean"]
        },
        "commit_id": {
            "type": ["null", "string"]
        }
    }
}
