{
    "type": "object",
    "properties": {
        "commit_id": {
            "type": "string"
        },
        "project_id": {
            "type": "integer"
        },
        "name": {
            "type": "string"
        },
        "target": {
            "type": "string"
        },
        "message": {
            "type": ["null", "string"]
        }
    }
}
